module gitlab.com/gitlab-org/cloud-native/operator

go 1.23.0

toolchain go1.24.1

require (
	github.com/Masterminds/semver/v3 v3.3.1
	github.com/Masterminds/sprig/v3 v3.3.0
	github.com/fatih/color v1.18.0
	github.com/go-logr/logr v1.4.2
	github.com/go-playground/validator/v10 v10.25.0
	github.com/goccy/go-yaml v1.15.23
	github.com/google/go-cmp v0.7.0
	github.com/huandu/xstrings v1.5.0
	github.com/mitchellh/mapstructure v1.5.0
	github.com/onsi/ginkgo/v2 v2.23.0
	github.com/onsi/gomega v1.36.2
	github.com/prometheus-operator/prometheus-operator/pkg/apis/monitoring v0.80.1
	github.com/spf13/afero v1.12.0
	github.com/spf13/cobra v1.9.1
	github.com/spf13/pflag v1.0.6
	github.com/spf13/viper v1.19.0
	go.uber.org/zap v1.27.0
	golang.org/x/crypto v0.36.0
	gopkg.in/yaml.v3 v3.0.1
	k8s.io/api v0.32.2
	k8s.io/apiextensions-apiserver v0.32.2
	k8s.io/apimachinery v0.32.2
	k8s.io/apiserver v0.32.2
	k8s.io/client-go v0.32.2
	k8s.io/kubectl v0.32.2
	k8s.io/utils v0.0.0-20241210054802-24370beab758
	sigs.k8s.io/controller-runtime v0.20.2
	sigs.k8s.io/kustomize/api v0.19.0
	sigs.k8s.io/kustomize/kyaml v0.19.0
	sigs.k8s.io/yaml v1.4.0
)

require (
	cel.dev/expr v0.22.0 // indirect
	dario.cat/mergo v1.0.1 // indirect
	github.com/Masterminds/goutils v1.1.1 // indirect
	github.com/antlr4-go/antlr/v4 v4.13.1 // indirect
	github.com/asaskevich/govalidator v0.0.0-20230301143203-a9d515a09cc2 // indirect
	github.com/beorn7/perks v1.0.1 // indirect
	github.com/blang/semver/v4 v4.0.0 // indirect
	github.com/cenkalti/backoff/v4 v4.3.0 // indirect
	github.com/cespare/xxhash/v2 v2.3.0 // indirect
	github.com/davecgh/go-spew v1.1.2-0.20180830191138-d8f796af33cc // indirect
	github.com/emicklei/go-restful/v3 v3.12.2 // indirect
	github.com/evanphx/json-patch v5.9.0+incompatible // indirect
	github.com/evanphx/json-patch/v5 v5.9.11 // indirect
	github.com/felixge/httpsnoop v1.0.4 // indirect
	github.com/fsnotify/fsnotify v1.8.0 // indirect
	github.com/fxamacker/cbor/v2 v2.7.0 // indirect
	github.com/gabriel-vasile/mimetype v1.4.8 // indirect
	github.com/go-errors/errors v1.5.1 // indirect
	github.com/go-logr/stdr v1.2.2 // indirect
	github.com/go-logr/zapr v1.3.0 // indirect
	github.com/go-openapi/jsonpointer v0.21.0 // indirect
	github.com/go-openapi/jsonreference v0.21.0 // indirect
	github.com/go-openapi/swag v0.23.0 // indirect
	github.com/go-playground/locales v0.14.1 // indirect
	github.com/go-playground/universal-translator v0.18.1 // indirect
	github.com/go-task/slim-sprig/v3 v3.0.0 // indirect
	github.com/gogo/protobuf v1.3.2 // indirect
	github.com/golang/protobuf v1.5.4 // indirect
	github.com/google/btree v1.1.3 // indirect
	github.com/google/cel-go v0.22.1 // indirect
	github.com/google/gnostic-models v0.6.9 // indirect
	github.com/google/gofuzz v1.2.0 // indirect
	github.com/google/pprof v0.0.0-20250302191652-9094ed2288e7 // indirect
	github.com/google/shlex v0.0.0-20191202100458-e7afc7fbc510 // indirect
	github.com/google/uuid v1.6.0 // indirect
	github.com/grpc-ecosystem/grpc-gateway/v2 v2.26.3 // indirect
	github.com/hashicorp/hcl v1.0.0 // indirect
	github.com/inconshreveable/mousetrap v1.1.0 // indirect
	github.com/josharian/intern v1.0.0 // indirect
	github.com/json-iterator/go v1.1.12 // indirect
	github.com/klauspost/compress v1.18.0 // indirect
	github.com/leodido/go-urn v1.4.0 // indirect
	github.com/magiconair/properties v1.8.9 // indirect
	github.com/mailru/easyjson v0.9.0 // indirect
	github.com/mattn/go-colorable v0.1.14 // indirect
	github.com/mattn/go-isatty v0.0.20 // indirect
	github.com/mitchellh/copystructure v1.2.0 // indirect
	github.com/mitchellh/reflectwalk v1.0.2 // indirect
	github.com/modern-go/concurrent v0.0.0-20180306012644-bacd9c7ef1dd // indirect
	github.com/modern-go/reflect2 v1.0.2 // indirect
	github.com/monochromegane/go-gitignore v0.0.0-20200626010858-205db1a8cc00 // indirect
	github.com/munnerz/goautoneg v0.0.0-20191010083416-a7dc8b61c822 // indirect
	github.com/pelletier/go-toml/v2 v2.2.3 // indirect
	github.com/pkg/errors v0.9.1 // indirect
	github.com/prometheus/client_golang v1.21.1 // indirect
	github.com/prometheus/client_model v0.6.1 // indirect
	github.com/prometheus/common v0.62.0 // indirect
	github.com/prometheus/procfs v0.15.1 // indirect
	github.com/sagikazarmark/locafero v0.7.0 // indirect
	github.com/sagikazarmark/slog-shim v0.1.0 // indirect
	github.com/shopspring/decimal v1.4.0 // indirect
	github.com/sourcegraph/conc v0.3.0 // indirect
	github.com/spf13/cast v1.7.1 // indirect
	github.com/stoewer/go-strcase v1.3.0 // indirect
	github.com/subosito/gotenv v1.6.0 // indirect
	github.com/x448/float16 v0.8.4 // indirect
	github.com/xlab/treeprint v1.2.0 // indirect
	go.opentelemetry.io/auto/sdk v1.1.0 // indirect
	go.opentelemetry.io/contrib/instrumentation/net/http/otelhttp v0.60.0 // indirect
	go.opentelemetry.io/otel v1.35.0 // indirect
	go.opentelemetry.io/otel/exporters/otlp/otlptrace v1.35.0 // indirect
	go.opentelemetry.io/otel/exporters/otlp/otlptrace/otlptracegrpc v1.35.0 // indirect
	go.opentelemetry.io/otel/metric v1.35.0 // indirect
	go.opentelemetry.io/otel/sdk v1.35.0 // indirect
	go.opentelemetry.io/otel/trace v1.35.0 // indirect
	go.opentelemetry.io/proto/otlp v1.5.0 // indirect
	go.uber.org/multierr v1.11.0 // indirect
	golang.org/x/exp v0.0.0-20250305212735-054e65f0b394 // indirect
	golang.org/x/net v0.37.0 // indirect
	golang.org/x/oauth2 v0.28.0 // indirect
	golang.org/x/sync v0.12.0 // indirect
	golang.org/x/sys v0.31.0 // indirect
	golang.org/x/term v0.30.0 // indirect
	golang.org/x/text v0.23.0 // indirect
	golang.org/x/time v0.11.0 // indirect
	golang.org/x/tools v0.31.0 // indirect
	gomodules.xyz/jsonpatch/v2 v2.4.0 // indirect
	google.golang.org/genproto/googleapis/api v0.0.0-20250303144028-a0af3efb3deb // indirect
	google.golang.org/genproto/googleapis/rpc v0.0.0-20250303144028-a0af3efb3deb // indirect
	google.golang.org/grpc v1.71.0 // indirect
	google.golang.org/protobuf v1.36.5 // indirect
	gopkg.in/evanphx/json-patch.v4 v4.12.0 // indirect
	gopkg.in/inf.v0 v0.9.1 // indirect
	gopkg.in/ini.v1 v1.67.0 // indirect
	k8s.io/component-base v0.32.2 // indirect
	k8s.io/klog/v2 v2.130.1 // indirect
	k8s.io/kube-openapi v0.0.0-20250304201544-e5f78fe3ede9 // indirect
	sigs.k8s.io/apiserver-network-proxy/konnectivity-client v0.31.2 // indirect
	sigs.k8s.io/json v0.0.0-20241014173422-cfa47c3a1cc8 // indirect
	sigs.k8s.io/randfill v1.0.0 // indirect
	sigs.k8s.io/structured-merge-diff/v4 v4.6.0 // indirect
)
